{
  "project_info": {
    "project_number": "87991623104",
    "firebase_url": "https://quizmaker-bac9f.firebaseio.com",
    "project_id": "quizmaker-bac9f",
    "storage_bucket": "quizmaker-bac9f.appspot.com"
  },
  "client": [
    {
      "client_info": {
        "mobilesdk_app_id": "1:87991623104:android:89fecaa623f6135c333c25",
        "android_client_info": {
          "package_name": "com.example.quizmaker"
        }
      },
      "oauth_client": [
        {
          "client_id": "87991623104-dilg5sojhp7chvlr1qed0camtm8qooq0.apps.googleusercontent.com",
          "client_type": 3
        }
      ],
      "api_key": [
        {
          "current_key": "AIzaSyDXkuKUSSrSliJNn1xIyhc0sHQ78P9HyDE"
        }
      ],
      "services": {
        "appinvite_service": {
          "other_platform_oauth_client": [
            {
              "client_id": "87991623104-dilg5sojhp7chvlr1qed0camtm8qooq0.apps.googleusercontent.com",
              "client_type": 3
            }
          ]
        }
      }
    }
  ],
  "configuration_version": "1"
}